﻿<?xml version="1.0" encoding="utf-8"?>
<svg version="1.1" xmlns:xlink="http://www.w3.org/1999/xlink" width="145px" height="46px" xmlns="http://www.w3.org/2000/svg">
  <g transform="matrix(1 0 0 1 -268 -200 )">
    <path d="M 411.5 245  L 268 245  L 294.917883420871 205.322367269232  C 297.609671762959 201.354603996155  300.334306736697 200.5  308.417883420871 200.5  L 407 200.5  C 408.98 200.5  411.5 203.02  411.5 205  L 411.5 245  Z " fill-rule="nonzero" fill="#ffffff" stroke="none" />
    <path d="M 268 245  L 294.917883420871 205.322367269232  C 297.609671762959 201.354603996155  300.334306736697 200.5  308.417883420871 200.5  L 407 200.5  C 408.98 200.5  411.5 203.02  411.5 205  L 411.5 245  " stroke-width="1" stroke="#797979" fill="none" />
  </g>
</svg>