﻿<?xml version="1.0" encoding="utf-8"?>
<svg version="1.1" xmlns:xlink="http://www.w3.org/1999/xlink" width="1000px" height="500px" xmlns="http://www.w3.org/2000/svg">
  <g transform="matrix(1 0 0 1 0 -1200 )">
    <path d="M 0.5 1200.5  L 999.5 1200.5  L 999.5 1699.5  L 0.5 1699.5  L 0.5 1200.5  Z " fill-rule="nonzero" fill="#f2f2f2" stroke="none" />
    <path d="M 0.5 1200.5  L 999.5 1200.5  L 999.5 1699.5  L 0.5 1699.5  L 0.5 1200.5  Z " stroke-width="1" stroke="#797979" fill="none" />
    <path d="M 0.894427190999916 1200.4472135955  L 999.105572809 1699.5527864045  M 999.105572809 1200.4472135955  L 0.894427190999916 1699.5527864045  " stroke-width="1" stroke="#797979" fill="none" />
  </g>
</svg>