﻿<?xml version="1.0" encoding="utf-8"?>
<svg version="1.1" xmlns:xlink="http://www.w3.org/1999/xlink" width="78px" height="126px" xmlns="http://www.w3.org/2000/svg">
  <defs>
    <mask fill="white" id="clip8">
      <path d="M 23.1 15.625  C 23.1 6.87499999999996  29.876 0  38.5 0  C 47.124 0  53.9 6.87499999999996  53.9 15.625  C 53.9 24.375  47.124 31.25  38.5 31.25  C 29.876 31.25  23.1 24.375  23.1 15.625  Z " fill-rule="evenodd" />
    </mask>
  </defs>
  <g transform="matrix(1 0 0 1 -594 -323 )">
    <path d="M 23.1 15.625  C 23.1 6.87499999999996  29.876 0  38.5 0  C 47.124 0  53.9 6.87499999999996  53.9 15.625  C 53.9 24.375  47.124 31.25  38.5 31.25  C 29.876 31.25  23.1 24.375  23.1 15.625  Z M 38.5 85.9375  L 38.5 31.25  L 38.5 60.3365384615384  L 38.5 85.9375  Z " fill-rule="nonzero" fill="#ffffff" stroke="none" transform="matrix(1 0 0 1 594 323 )" />
    <path d="M 23.1 15.625  C 23.1 6.87499999999996  29.876 0  38.5 0  C 47.124 0  53.9 6.87499999999996  53.9 15.625  C 53.9 24.375  47.124 31.25  38.5 31.25  C 29.876 31.25  23.1 24.375  23.1 15.625  Z " stroke-width="2" stroke="#797979" fill="none" transform="matrix(1 0 0 1 594 323 )" mask="url(#clip8)" />
    <path d="M 0 47.5  L 77 47.5  M 38.5 31.25  L 38.5 60.3365384615384  L 38.5 85.9375  M 7.7 125  L 38.5 85.9375  M 38.5 85.9375  L 69.3 125  " stroke-width="1" stroke="#797979" fill="none" transform="matrix(1 0 0 1 594 323 )" mask="url(#clip8)" />
  </g>
</svg>