﻿<?xml version="1.0" encoding="utf-8"?>
<svg version="1.1" xmlns:xlink="http://www.w3.org/1999/xlink" width="68px" height="10px" preserveAspectRatio="xMinYMid meet" viewBox="244 496  68 8" xmlns="http://www.w3.org/2000/svg">
  <path d="M 307 487  L 307 495  A 5 5 0 0 1 302 500 L 254 500  A 5 5 0 0 0 249 505 L 249 510  " stroke-width="2" stroke="#0099cc" fill="none" />
  <path d="M 241 502.6  L 249 512  L 257 502.6  L 249 506.2  L 241 502.6  Z " fill-rule="nonzero" fill="#0099cc" stroke="none" />
</svg>