﻿<?xml version="1.0" encoding="utf-8"?>
<svg version="1.1" xmlns:xlink="http://www.w3.org/1999/xlink" width="100px" height="60px" xmlns="http://www.w3.org/2000/svg">
  <g transform="matrix(1 0 0 1 -69 -342 )">
    <path d="M 69.6686646117341 401.5  L 87.3686646117341 342.5  L 168.331335388266 342.5  L 150.631335388266 401.5  L 69.6686646117341 401.5  Z " fill-rule="nonzero" fill="#ffffff" stroke="none" />
    <path d="M 69 402  L 87 342  L 169 342  L 151 402  L 69 402  Z M 87.7373292234683 343  L 70.3373292234683 401  L 150.262670776532 401  L 167.662670776532 343  L 87.7373292234683 343  Z " fill-rule="nonzero" fill="#797979" stroke="none" />
  </g>
</svg>