﻿<?xml version="1.0" encoding="utf-8"?>
<svg version="1.1" xmlns:xlink="http://www.w3.org/1999/xlink" width="185px" height="10px" preserveAspectRatio="xMinYMid meet" viewBox="237 354  185 8" xmlns="http://www.w3.org/2000/svg">
  <defs>
    <mask fill="white" id="clip16">
      <path d="M 284.5 345  L 369.5 345  L 369.5 370  L 284.5 370  Z M 237 341  L 434 341  L 434 375  L 237 375  Z " fill-rule="evenodd" />
    </mask>
  </defs>
  <path d="M 284.5 358  L 237 358  M 369.5 358  L 415 358  " stroke-width="2" stroke="#0099cc" fill="none" />
  <path d="M 407.6 366  L 417 358  L 407.6 350  L 411.2 358  L 407.6 366  Z " fill-rule="nonzero" fill="#0099cc" stroke="none" mask="url(#clip16)" />
</svg>