﻿<?xml version="1.0" encoding="utf-8"?>
<svg version="1.1" xmlns:xlink="http://www.w3.org/1999/xlink" width="60px" height="80px" xmlns="http://www.w3.org/2000/svg">
  <g transform="matrix(1 0 0 1 -73 -433 )">
    <path d="M 132.5 445  C 132.5 445  132.5 501  132.5 501  C 132.5 507.608  119.1 512.5  103 512.5  C 86.9 512.5  73.5 507.608  73.5 501  C 73.5 501  73.5 445  73.5 445  C 73.5 438.392  86.9 433.5  103 433.5  C 119.1 433.5  132.5 438.392  132.5 445  Z " fill-rule="nonzero" fill="#ffffff" stroke="none" />
    <path d="M 73.5 445.35  C 73.5 438.714  86.48 433.5  103 433.5  C 119.52 433.5  132.5 438.714  132.5 445.35  C 132.5 445.35  132.5 500.65  132.5 500.65  C 132.5 507.286  119.52 512.5  103 512.5  C 86.48 512.5  73.5 507.286  73.5 500.65  C 73.5 500.65  73.5 445.35  73.5 445.35  Z " stroke-width="1" stroke="#797979" fill="none" />
    <path d="M 132.5 445  C 132.5 451.44  119.52 456.5  103 456.5  C 86.48 456.5  73.5 451.44  73.5 445  " stroke-width="1" stroke="#797979" fill="none" />
  </g>
</svg>