﻿<?xml version="1.0" encoding="utf-8"?>
<svg version="1.1" xmlns:xlink="http://www.w3.org/1999/xlink" width="10px" height="18px" preserveAspectRatio="xMidYMin meet" viewBox="303 487  8 18" xmlns="http://www.w3.org/2000/svg">
  <path d="M 307 487  L 307 495  A 5 5 0 0 0 312 500 L 359 500  A 5 5 0 0 1 364 505 L 364 510  " stroke-width="2" stroke="#0099cc" fill="none" />
  <path d="M 356 502.6  L 364 512  L 372 502.6  L 364 506.2  L 356 502.6  Z " fill-rule="nonzero" fill="#0099cc" stroke="none" />
</svg>