﻿<?xml version="1.0" encoding="utf-8"?>
<svg version="1.1" xmlns:xlink="http://www.w3.org/1999/xlink" width="160px" height="70px" xmlns="http://www.w3.org/2000/svg">
  <g>
    <path d="M 0.5 0.5  L 159.5 0.5  L 159.5 69.5  L 0.5 69.5  L 0.5 0.5  Z " fill-rule="nonzero" fill="#f2f2f2" stroke="none" />
    <path d="M 0.5 0.5  L 159.5 0.5  L 159.5 69.5  L 0.5 69.5  L 0.5 0.5  Z " stroke-width="1" stroke="#797979" fill="none" />
    <path d="M 1.04703695417393 0.458078667451095  L 158.952963045826 69.5419213325489  M 158.952963045826 0.458078667451095  L 1.04703695417393 69.5419213325489  " stroke-width="1" stroke="#797979" fill="none" />
  </g>
</svg>