﻿<?xml version="1.0" encoding="utf-8"?>
<svg version="1.1" xmlns:xlink="http://www.w3.org/1999/xlink" width="206px" height="11px" xmlns="http://www.w3.org/2000/svg">
  <defs>
    <linearGradient gradientUnits="userSpaceOnUse" x1="591" y1="351.5" x2="789" y2="351.5" id="LinearGradient9">
      <stop id="Stop10" stop-color="#3399ff" offset="0" />
      <stop id="Stop11" stop-color="#00ffff" offset="0.53" />
      <stop id="Stop12" stop-color="#00ff99" offset="1" />
    </linearGradient>
  </defs>
  <g transform="matrix(1 0 0 1 -588.5 -346.5 )">
    <path d="M 591 351.5  L 791 351.5  " stroke-width="5" stroke="url(#LinearGradient9)" fill="none" />
  </g>
</svg>