﻿<?xml version="1.0" encoding="utf-8"?>
<svg version="1.1" xmlns:xlink="http://www.w3.org/1999/xlink" width="120px" height="70px" xmlns="http://www.w3.org/2000/svg">
  <defs>
    <mask fill="white" id="clip15">
      <path d="M 48.5 27  L 73.5 27  L 73.5 46  L 48.5 46  Z M 0 0  L 120 0  L 120 70  L 0 70  Z " fill-rule="evenodd" />
    </mask>
  </defs>
  <g>
    <path d="M 0.5 0.5  L 119.5 0.5  L 119.5 69.5  L 0.5 69.5  L 0.5 0.5  Z " fill-rule="nonzero" fill="#f2f2f2" stroke="none" />
    <path d="M 0.5 0.5  L 119.5 0.5  L 119.5 69.5  L 0.5 69.5  L 0.5 0.5  Z " stroke-width="1" stroke="#797979" fill="none" />
    <path d="M 0.7403819150558 0.431889450449217  L 119.259618084944 69.5681105495508  M 119.259618084944 0.431889450449217  L 0.7403819150558 69.5681105495508  " stroke-width="1" stroke="#797979" fill="none" mask="url(#clip15)" />
  </g>
</svg>